2 Prácticas de contrastes de hipótesis paramétricos con R – Problemas de Bioestadística
…
library(readr)
df <- read_csv("https://aprendeconalf.es/estadistica-practicas-r/datos/dieta.csv")

Rows: 40 Columns: 3
── Column specification ────────────────────────────────────────────────────────
Delimiter: ","
chr (1): ejercicio
dbl (2): dias, peso.perdido

ℹ Use `spec()` to retrieve the full column specification for this data.
ℹ Specify the column types or set `show_col_types = FALSE` to quiet this message.

df

# A tibble: 40 × 3
    dias peso.perdido ejercicio
   <dbl>        <dbl> <chr>    
 1    14         2.95 no       
 2    18         5.65 no       
 3    22         6.56 no       
 4    26         3.56 no       
 5    30         6.17 no       
 6    34         9.4  no       
 7    38        12.4  no       
 8    42        12.9  no       
 9    46        13.9  no       
10    50        10.8  no       
# ℹ 30 more rows
…
